{
   "reading":[
      {
         "page":1,
         "metadata":{
            "currentPage":1,
            "lastPage":5,
            "nextPage":2,
            "perPage":10,
            "totalCount":46
         },
         "data":[
            {
               "docId":"d1",
               "title":"Working Sample 1",
               "downloadLink":"http://files.infogridpacific.com/ss/igp-twss.epub",
               "ext":"epub"
            },
            {
               "docId":"d2",
               "title":"Working Sample 2",
               "downloadLink":"http://m.feedbooks.com/book/22.epub",
               "ext":"epub"
            },
            {
               "docId":"d3",
               "title":"Sample PDF FILE",
               "downloadLink":"http://www.africau.edu/images/default/sample.pdf",
               "ext":"pdf"
            },
            {
               "docId":"d4",
               "title":"Placeholder Only"
            },
            {
               "docId":"d5",
               "title":"Placeholder Only"
            },
            {
               "docId":"d6",
               "title":"Placeholder Only"
            },
            {
               "docId":"d7",
               "title":"Placeholder Only"
            },
            {
               "docId":"d8",
               "title":"Placeholder Only"
            },
            {
               "docId":"d9",
               "title":"Placeholder Only"
            },
            {
               "docId":"d10",
               "title":"Placeholder Only"
            }
         ]
      },
      {
         "page":2,
         "metadata":{
            "currentPage":2,
            "lastPage":5,
            "nextPage":3,
            "perPage":10,
            "totalCount":46
         },
         "data":[
            {
               "docId":"d21",
               "title":"Working Sample 1",
               "downloadLink":"http://files.infogridpacific.com/ss/igp-twss.epub",
               "ext":"epub"
            },
            {
               "docId":"d22",
               "title":"Working Sample 2",
               "downloadLink":"http://m.feedbooks.com/book/22.epub",
               "ext":"epub"
            },
            {
               "docId":"d23",
               "title":"Sample PDF FILE",
               "downloadLink":"http://www.africau.edu/images/default/sample.pdf",
               "ext":"pdf"
            },
            {
               "docId":"d24",
               "title":"Placeholder Only"
            },
            {
               "docId":"d25",
               "title":"Placeholder Only"
            },
            {
               "docId":"d26",
               "title":"Placeholder Only"
            },
            {
               "docId":"d27",
               "title":"Placeholder Only"
            },
            {
               "docId":"d28",
               "title":"Placeholder Only"
            },
            {
               "docId":"d29",
               "title":"Placeholder Only"
            },
            {
               "docId":"d210",
               "title":"Placeholder Only"
            }
         ]
      },
      {
         "page":3,
         "metadata":{
            "currentPage":3,
            "lastPage":5,
            "nextPage":4,
            "perPage":10,
            "totalCount":46
         },
         "data":[
            {
               "docId":"d31",
               "title":"Working Sample 1",
               "downloadLink":"http://files.infogridpacific.com/ss/igp-twss.epub",
               "ext":"epub"
            },
            {
               "docId":"d32",
               "title":"Working Sample 2",
               "downloadLink":"http://m.feedbooks.com/book/22.epub",
               "ext":"epub"
            },
            {
               "docId":"d33",
               "title":"Sample PDF FILE",
               "downloadLink":"http://www.africau.edu/images/default/sample.pdf",
               "ext":"pdf"
            },
            {
               "docId":"d34",
               "title":"Placeholder Only"
            },
            {
               "docId":"d35",
               "title":"Placeholder Only"
            },
            {
               "docId":"d36",
               "title":"Placeholder Only"
            },
            {
               "docId":"d37",
               "title":"Placeholder Only"
            },
            {
               "docId":"d38",
               "title":"Placeholder Only"
            },
            {
               "docId":"d39",
               "title":"Placeholder Only"
            },
            {
               "docId":"d310",
               "title":"Placeholder Only"
            }
         ]
      },
      {
         "page":4,
         "metadata":{
            "currentPage":4,
            "lastPage":5,
            "nextPage":5,
            "perPage":10,
            "totalCount":46
         },
         "data":[
            {
               "docId":"d41",
               "title":"Working Sample 1",
               "downloadLink":"http://files.infogridpacific.com/ss/igp-twss.epub",
               "ext":"epub"
            },
            {
               "docId":"d42",
               "title":"Working Sample 2",
               "downloadLink":"http://m.feedbooks.com/book/22.epub",
               "ext":"epub"
            },
            {
               "docId":"d43",
               "title":"Sample PDF FILE",
               "downloadLink":"http://www.africau.edu/images/default/sample.pdf",
               "ext":"pdf"
            },
            {
               "docId":"d44",
               "title":"Placeholder Only"
            },
            {
               "docId":"d45",
               "title":"Placeholder Only"
            },
            {
               "docId":"d46",
               "title":"Placeholder Only"
            },
            {
               "docId":"d47",
               "title":"Placeholder Only"
            },
            {
               "docId":"d48",
               "title":"Placeholder Only"
            },
            {
               "docId":"d49",
               "title":"Placeholder Only"
            },
            {
               "docId":"d410",
               "title":"Placeholder Only"
            }
         ]
      },
      {
         "page":5,
         "metadata":{
            "currentPage":5,
            "lastPage":5,
            "nextPage":5,
            "perPage":10,
            "totalCount":46
         },
         "data":[
            {
               "docId":"d51",
               "title":"TEST 1",
               "downloadLink":"http://files.infogridpacific.com/ss/igp-twss.epub",
               "ext":"epub"
            },
            {
               "docId":"d52",
               "title":"TEST 2",
               "downloadLink":"http://m.feedbooks.com/book/22.epub",
               "ext":"epub"
            },
            {
               "docId":"d53",
               "title":"TEST 3",
               "downloadLink":"http://www.africau.edu/images/default/sample.pdf",
               "ext":"pdf"
            },
            {
               "docId":"d54",
               "title":"Placeholder Only 4"
            },
            {
               "docId":"d55",
               "title":"Placeholder Only 5 "
            },
            {
               "docId":"d56",
               "title":"Placeholder Only 6"
            },
            {
               "docId":"d57",
               "title":"Placeholder Only 7"
            },
            {
               "docId":"d58",
               "title":"Placeholder Only 8"
            },
            {
               "docId":"d59",
               "title":"Placeholder Only 9"
            },
            {
               "docId":"d510",
               "title":"Placeholder Only 10"
            }
         ]
      }
   ]
}
